Introduction to Statistical Computing - 6 Data Structures
…
Another way to create new variables in R involves the use of the dplyr package. There are at least 2 advantages to using this package for these types of tasks:

There is a consistent way to call each function and engage with the data (this API - application programming interface - is designed around using the pipe, %>% discussed above)

You don’t have to reference the data frame name and the column name using df$colname; instead, you use the function on the data frame and work with “bare” column names inside that function.

library(dplyr)

airmen <- airmen %>%
  mutate(initials = paste0(substr(First, 1, 1), substr(Last, 1, 1)))
select(airmen, 1:3, initials) # Select lets us choose to only show some columns
## # A tibble: 1,006 × 4
##    Name                      Last      First          initials
##    <chr>                     <chr>     <chr>          <chr>   
##  1 Adams, John H., Jr.       Adams     John H., Jr.   JA      
##  2 Adams, Paul               Adams     Paul           PA      
##  3 Adkins, Rutherford H.     Adkins    Rutherford H.  RA      
##  4 Adkins, Winston A.        Adkins    Winston A.     WA      
##  5 Alexander, Halbert L.     Alexander Halbert L.     HA      
##  6 Alexander, Harvey R.      Alexander Harvey R.      HA      
##  7 Alexander, Robert R.      Alexander Robert R.      RA      
##  8 Alexander, Walter G., III Alexander Walter G., III WA      
##  9 Allen, Carl V.            Allen     Carl V.        CA      
## 10 Allen, Clarence W.        Allen     Clarence W.    CA      
## # … with 996 more rows
…
